^D:\ECUST\5SEMESTER\COMPUTER_GRAPHICS\EX2\SIMPLE-OPENL-GRAPHIC-TOOL\X64\DEBUG\SIMPLE-OPENL-GRAPHIC-TOOL.OBJ
D:\ECUST\5SEMESTER\COMPUTER_GRAPHICS\EX2\SIMPLE-OPENL-GRAPHIC-TOOL\X64\DEBUG\SIMPLE-OPENL-GRAPHIC-TOOL.EXE
D:\ECUST\5SEMESTER\COMPUTER_GRAPHICS\EX2\SIMPLE-OPENL-GRAPHIC-TOOL\X64\DEBUG\SIMPLE-OPENL-GRAPHIC-TOOL.ILK
D:\ECUST\5SEMESTER\COMPUTER_GRAPHICS\EX2\SIMPLE-OPENL-GRAPHIC-TOOL\X64\DEBUG\SIMPLE-OPENL-GRAPHIC-TOOL.PDB
